Robotic-Assisted Total Knee Arthroplasty Does Not Increase Procedure Duration or Adverse Event Incidence: A Retrospective Comparative Cohort Study in a Secondary Public Teaching Hospital
…
# Step 2: View all rows with mismatches
mismatched_rows <- MasterSheetCheck |>
  filter(id_mismatch == TRUE)

# Step 3: Print the number of mismatches
print(paste("Number of mismatches:", nrow(mismatched_rows)))

[1] "Number of mismatches: 65"

Code

# Step 4: View the mismatched rows
print(mismatched_rows)

# A tibble: 65 × 50
   PotentialExclus ProgressIndicator ProgressComment Height Weight Comorbidities
   <chr>           <chr>             <chr>            <dbl>  <dbl> <chr>        
 1 No              Done Ms           <NA>               165   63.8 Nil          
 2 No              Done Ms           <NA>               172   88.6 Ihd          
 3 No              Done Ms           <NA>               178   95   Nil          
 4 No              Done Ms           <NA>               156   70   Nil          
 5 No              Done Ms           <NA>               174   98   Previous Ca  
 6 No              Done Ms           <NA>               172   72   Nil          
 7 No              Done Ms           <NA>               169   97   Previous Ca  
 8 No              Done Ms           <NA>               158   62.5 Nil          
 9 No              Done Jb           ?St Release - …    160   86   Nil          
10 No              Done Ms           <NA>               168   95   Nil          
# ℹ 55 more rows
# ℹ 44 more variables: DateOfInitialExam <date>, PatientID <chr>,
#   MockUpID <chr>, SurgeryDate <date>, Surgeon <chr>, TempIDFull <chr>,
#   TempIDPart <chr>, SurgerySide <chr>, Group <chr>, BilateralStatus <chr>,
#   SimultaneousBilateralSurgery <chr>, Surgery_ProcedureName <chr>,
#   Operator <chr>, Approach <chr>, Anaesthetic <chr>, TourniquetType <chr>,
#   Pathology <chr>, AlignmentReferencing <chr>, SoftTissueRelease <chr>, …

Code

# Optional: If you want to see only the identifier columns and a few others
mismatched_ids <- mismatched_rows |>
  select(MockUpID, TempIDFull)
print(mismatched_ids)

# A tibble: 65 × 2
   MockUpID         TempIDFull      
   <chr>            <chr>           
 1 12358Left44273   012358Left44273 
 2 12235Right44279  012235Right44279
 3 74223Left44447   074223Left44447 
 4 2045743Left44293 2045743Left44658
 5 70840Left44727   070840Left44727 
 6 7029336LEFT44784 7029336Left44784
 7 29992Right44784  029992Right44784
 8 13906Right44805  013906Right44805
 9 38179Right44811  038179Right44811
10 85725Right44833  085725Right44833
# ℹ 55 more rows
…
